%YAML 1.1
%TAG !u! tag:unity3d.com,2011:
--- !u!114 &11400000
MonoBehaviour:
  m_ObjectHideFlags: 0
  m_CorrespondingSourceObject: {fileID: 0}
  m_PrefabInstance: {fileID: 0}
  m_PrefabAsset: {fileID: 0}
  m_GameObject: {fileID: 0}
  m_Enabled: 1
  m_EditorHideFlags: 0
  m_Script: {fileID: 11500000, guid: 69b730afb9d18aa4b8f406b1b2d3b4d7, type: 3}
  m_Name: SO Installer
  m_EditorClassIdentifier: 
  _gameConfig: {fileID: 11400000, guid: 4d63023d305a3574c843354d44e2a65d, type: 2}
